EESchema Schematic File Version 4
EELAYER 30 0
EELAYER END
$Descr A4 11693 8268
encoding utf-8
Sheet 1 1
Title "Powermeter"
Date "2020-09-28"
Rev "0.1"
Comp "UAS TW"
Comment1 ""
Comment2 ""
Comment3 ""
Comment4 ""
$EndDescr
$Comp
L Regulator_Linear:LM7805_TO220 U1
U 1 1 5F71322F
P 3650 3600
F 0 "U1" H 3475 3725 50  0000 C CNN
F 1 "K7805" H 3975 3425 50  0000 C CNN
F 2 "Package_TO_SOT_THT:TO-220-3_Vertical" H 3650 3825 50  0001 C CIN
F 3 "http://www.fairchildsemi.com/ds/LM/LM7805.pdf" H 3650 3550 50  0001 C CNN
	1    3650 3600
	1    0    0    -1  
$EndComp
$Comp
L Device:C C2
U 1 1 5F717A8F
P 4450 3800
F 0 "C2" H 4275 3900 50  0000 L CNN
F 1 "22µF/10V" H 4550 3725 50  0000 L CNN
F 2 "" H 4488 3650 50  0001 C CNN
F 3 "~" H 4450 3800 50  0001 C CNN
	1    4450 3800
	1    0    0    -1  
$EndComp
$Comp
L Device:C C1
U 1 1 5F718482
P 2850 3800
F 0 "C1" H 2675 3900 50  0000 L CNN
F 1 "10µF/50V" H 2950 3725 50  0000 L CNN
F 2 "" H 2888 3650 50  0001 C CNN
F 3 "~" H 2850 3800 50  0001 C CNN
	1    2850 3800
	1    0    0    -1  
$EndComp
Wire Wire Line
	4450 3650 4450 3600
Wire Wire Line
	4450 3600 3950 3600
Wire Wire Line
	3350 3600 2850 3600
Wire Wire Line
	2850 3600 2850 3650
Wire Wire Line
	2850 3950 3650 3950
Wire Wire Line
	3650 3950 3650 3900
Wire Wire Line
	4450 3950 3650 3950
Connection ~ 3650 3950
Connection ~ 2850 3600
Connection ~ 4450 3600
$Comp
L MCU_Module:Arduino_Nano_v3.x A1
U 1 1 5F70F7FE
P 6200 3700
F 0 "A1" H 6575 4650 50  0000 C CNN
F 1 "Arduino_Nano_BLE" H 5750 2750 50  0000 C CNN
F 2 "Module:Arduino_Nano" H 6200 3700 50  0001 C CIN
F 3 "http://www.mouser.com/pdfdocs/Gravitech_Arduino_Nano3_0.pdf" H 6200 3700 50  0001 C CNN
	1    6200 3700
	-1   0    0    -1  
$EndComp
$Comp
L power:+9V #PWR0107
U 1 1 5F71EA88
P 1650 3500
F 0 "#PWR0107" H 1650 3350 50  0001 C CNN
F 1 "+9V" H 1665 3673 50  0000 C CNN
F 2 "" H 1650 3500 50  0001 C CNN
F 3 "" H 1650 3500 50  0001 C CNN
	1    1650 3500
	1    0    0    -1  
$EndComp
Wire Wire Line
	2850 3500 2850 3600
$Comp
L power:+9V #PWR0108
U 1 1 5F7167C5
P 2850 3500
F 0 "#PWR0108" H 2850 3350 50  0001 C CNN
F 1 "+9V" H 2865 3673 50  0000 C CNN
F 2 "" H 2850 3500 50  0001 C CNN
F 3 "" H 2850 3500 50  0001 C CNN
	1    2850 3500
	1    0    0    -1  
$EndComp
Wire Wire Line
	4450 3500 4450 3600
$Comp
L power:+5V #PWR0109
U 1 1 5F717374
P 4450 3500
F 0 "#PWR0109" H 4450 3350 50  0001 C CNN
F 1 "+5V" H 4465 3673 50  0000 C CNN
F 2 "" H 4450 3500 50  0001 C CNN
F 3 "" H 4450 3500 50  0001 C CNN
	1    4450 3500
	1    0    0    -1  
$EndComp
$Comp
L power:GND #PWR0111
U 1 1 5F71ED38
P 1650 3900
F 0 "#PWR0111" H 1650 3650 50  0001 C CNN
F 1 "GND" H 1655 3727 50  0000 C CNN
F 2 "" H 1650 3900 50  0001 C CNN
F 3 "" H 1650 3900 50  0001 C CNN
	1    1650 3900
	1    0    0    -1  
$EndComp
Wire Wire Line
	3650 4000 3650 3950
$Comp
L power:GND #PWR0112
U 1 1 5F71636C
P 3650 4000
F 0 "#PWR0112" H 3650 3750 50  0001 C CNN
F 1 "GND" H 3655 3827 50  0000 C CNN
F 2 "" H 3650 4000 50  0001 C CNN
F 3 "" H 3650 4000 50  0001 C CNN
	1    3650 4000
	1    0    0    -1  
$EndComp
Wire Wire Line
	1650 3850 1650 3900
Wire Wire Line
	1650 3500 1650 3550
$Comp
L Device:Battery_Cell BT1
U 1 1 5F71D3F5
P 1650 3750
F 0 "BT1" H 1425 3900 50  0000 L CNN
F 1 "9V" H 1750 3725 50  0000 L CNN
F 2 "" V 1650 3810 50  0001 C CNN
F 3 "~" V 1650 3810 50  0001 C CNN
	1    1650 3750
	1    0    0    -1  
$EndComp
$Comp
L power:+5V #PWR0101
U 1 1 5F73556A
P 6300 2650
F 0 "#PWR0101" H 6300 2500 50  0001 C CNN
F 1 "+5V" H 6315 2823 50  0000 C CNN
F 2 "" H 6300 2650 50  0001 C CNN
F 3 "" H 6300 2650 50  0001 C CNN
	1    6300 2650
	1    0    0    -1  
$EndComp
Wire Wire Line
	6300 2700 6300 2650
$Comp
L power:GND #PWR0102
U 1 1 5F735AC9
P 6100 4750
F 0 "#PWR0102" H 6100 4500 50  0001 C CNN
F 1 "GND" H 6105 4577 50  0000 C CNN
F 2 "" H 6100 4750 50  0001 C CNN
F 3 "" H 6100 4750 50  0001 C CNN
	1    6100 4750
	1    0    0    -1  
$EndComp
$Comp
L power:GND #PWR0103
U 1 1 5F735D8F
P 6200 4750
F 0 "#PWR0103" H 6200 4500 50  0001 C CNN
F 1 "GND" H 6205 4577 50  0000 C CNN
F 2 "" H 6200 4750 50  0001 C CNN
F 3 "" H 6200 4750 50  0001 C CNN
	1    6200 4750
	1    0    0    -1  
$EndComp
Wire Wire Line
	6200 4750 6200 4700
Wire Wire Line
	6100 4750 6100 4700
NoConn ~ 6000 2700
NoConn ~ 6100 2700
NoConn ~ 5700 3100
NoConn ~ 5700 3200
NoConn ~ 5700 3500
NoConn ~ 5700 3700
NoConn ~ 5700 3800
NoConn ~ 5700 3900
NoConn ~ 5700 4000
NoConn ~ 5700 4100
NoConn ~ 5700 4200
NoConn ~ 5700 4300
NoConn ~ 5700 4400
NoConn ~ 6700 3200
NoConn ~ 6700 3100
$Comp
L Display_Character:NHD-0420H1Z A2
U 1 1 5F74968D
P 7850 3900
F 0 "A2" H 7600 4650 50  0000 C CNN
F 1 "LCD_1601A" H 8100 3150 50  0000 C CNN
F 2 "Display:NHD-0420H1Z" H 7850 3000 50  0001 C CNN
F 3 "http://www.newhavendisplay.com/specs/NHD-0420H1Z-FSW-GBW-33V3.pdf" H 7950 3800 50  0001 C CNN
	1    7850 3900
	1    0    0    1   
$EndComp
Wire Wire Line
	6700 3300 7450 3300
Wire Wire Line
	7450 3400 6700 3400
Wire Wire Line
	6700 3500 7450 3500
Wire Wire Line
	7450 3600 6700 3600
Wire Wire Line
	7450 4300 7250 4300
Wire Wire Line
	7250 4300 7250 4100
Wire Wire Line
	7250 4100 6700 4100
Wire Wire Line
	7050 4500 7450 4500
Wire Wire Line
	7050 4500 7050 4300
Wire Wire Line
	7050 4300 6700 4300
$Comp
L power:GND #PWR01
U 1 1 5F881B7A
P 7850 3050
F 0 "#PWR01" H 7850 2800 50  0001 C CNN
F 1 "GND" H 7855 2877 50  0000 C CNN
F 2 "" H 7850 3050 50  0001 C CNN
F 3 "" H 7850 3050 50  0001 C CNN
	1    7850 3050
	-1   0    0    1   
$EndComp
Wire Wire Line
	7850 3050 7850 3100
$Comp
L power:+5V #PWR02
U 1 1 5F8829C7
P 7850 5200
F 0 "#PWR02" H 7850 5050 50  0001 C CNN
F 1 "+5V" H 7865 5373 50  0000 C CNN
F 2 "" H 7850 5200 50  0001 C CNN
F 3 "" H 7850 5200 50  0001 C CNN
	1    7850 5200
	-1   0    0    1   
$EndComp
NoConn ~ 6700 3700
NoConn ~ 6700 3800
NoConn ~ 6700 3900
NoConn ~ 6700 4000
NoConn ~ 6700 4200
NoConn ~ 6700 4400
NoConn ~ 7450 3700
NoConn ~ 7450 3800
NoConn ~ 7450 3900
NoConn ~ 7450 4000
NoConn ~ 8250 3600
NoConn ~ 8250 3700
$Comp
L Device:R_POT_TRIM RV1
U 1 1 5F88AD8E
P 8000 4900
F 0 "RV1" V 8100 5150 50  0000 C CNN
F 1 "10k" V 7900 4750 50  0000 C CNN
F 2 "" H 8000 4900 50  0001 C CNN
F 3 "~" H 8000 4900 50  0001 C CNN
	1    8000 4900
	0    -1   -1   0   
$EndComp
Wire Wire Line
	7850 4700 7850 4900
Connection ~ 7850 4900
Wire Wire Line
	7850 4900 7850 5200
Wire Wire Line
	7950 4700 8000 4700
Wire Wire Line
	8000 4700 8000 4750
$Comp
L power:GND #PWR03
U 1 1 5F893848
P 8200 4900
F 0 "#PWR03" H 8200 4650 50  0001 C CNN
F 1 "GND" V 8205 4772 50  0000 R CNN
F 2 "" H 8200 4900 50  0001 C CNN
F 3 "" H 8200 4900 50  0001 C CNN
	1    8200 4900
	0    -1   -1   0   
$EndComp
Wire Wire Line
	8150 4900 8200 4900
$Comp
L power:GND #PWR?
U 1 1 5FB652CE
P 7400 4400
F 0 "#PWR?" H 7400 4150 50  0001 C CNN
F 1 "GND" V 7405 4272 50  0000 R CNN
F 2 "" H 7400 4400 50  0001 C CNN
F 3 "" H 7400 4400 50  0001 C CNN
	1    7400 4400
	0    1    1    0   
$EndComp
Wire Wire Line
	7400 4400 7450 4400
$EndSCHEMATC
